-----BEGIN PGP PUBLIC KEY BLOCK-----

mDMEYPRPnBYJKwYBBAHaRw8BAQdADFiV0RHv/vkzAHGjNqdHb7RB1PMRKyVwKsbd
6Bcc0Ia0H05hbWkgTGVmaGVyeiA8bmFtaUBsZWZoZXJ6Lm5ldD6IiwQTFggAMxYh
BL2FnT877ofbaHxNYdYzndMfnz7CBQJg9E+cAhsDBQsJCAcCBhUICQoLAgUWAgMB
AAAKCRDWM53TH58+wn4bAQDrDrfESGI2k8yq91KsMGLbIhc+2ymjJzd7g5fVgKul
JQD+KsXAg/H0qnp/OBBvRpja/EkIB4WjCJvG2EzbmjOxtwi4OARg9E+cEgorBgEE
AZdVAQUBAQdAywyv/6AUsdOzmYyvE1pz1PoJ/2FeCibIZ3i9CxeeczMDAQgHiHgE
GBYIACAWIQS9hZ0/O+6H22h8TWHWM53TH58+wgUCYPRPnAIbDAAKCRDWM53TH58+
wj0VAP4zA/FEC+eTxciEp4aFO9FdCc86W33AOGOTN359kZZcfwEAhDoUDYwPYxtW
GoZrO5wjA+4Z677F5dKRZkD+q/tIwQM=
=8vxd
-----END PGP PUBLIC KEY BLOCK-----
